Image_Proc/Image_Proc.sim/sim_1/behav/xsim/median_tb.vcd
$date
   Thu May 18 12:17:24 2023
$end
$version
  2020.2
$end
$timescale
  1ps
$end
$scope module median_tb $end
$var reg 1 ! clk $end
$var reg 8 " pixel_in [7:0] $end
$var wire 8 # pixel_out [7:0] $end
$var integer 32 $ file $end
$var reg 32 % delay [31:0] $end
$scope module top $end
$var wire 1 & clk $end
$var wire 1 ' reset $end
$var wire 8 ( pixel_in [7:0] $end
$var wire 8 # pixel_out [7:0] $end
$var reg 8 ) median_px [7:0] $end
$var reg 8 * temp [7:0] $end
$var reg 2 + state [1:0] $end
$upscope $end
$upscope $end
$enddefinitions $end
#0
$dumpvars
0!
bx "
bx #
b11111111111111111011000111100000 $
b0 %
0&
z'
bx (
bx )
bx *
bx +
$end
#5000
1!
b1 "
b1 %
1&
b1 (
#10000
0!
0&
#15000
1!
b10000 "
b10 %
1&
b10000 (
#20000
0!
0&
#25000
1!
b10001 "
b11 %
1&
b10001 (
#30000
0!
0&
#35000
1!
b10000 "
b100 %
1&
b10000 (
#40000
0!
0&
#45000
1!
b1 "
b101 %
1&
b1 (
#50000
0!
0&
#55000
1!
b1 "
b110 %
1&
#60000
0!
0&
#65000
1!
b10001 "
b111 %
1&
b10001 (
#70000
0!
0&
#75000
1!
b1 "
b1000 %
1&
b1 (
#80000
0!
0&
#85000
1!
b10001 "
b1001 %
1&
b10001 (
#90000
0!
0&
#95000
1!
b10001 "
b1010 %
1&
#100000
0!
0&
#105000
1!
b0 "
b1011 %
1&
b0 (
#110000
0!
0&
#115000
1!
b10001 "
b1100 %
1&
b10001 (
#120000
0!
0&
#125000
1!
b10000 "
b1101 %
1&
b10000 (
#130000
0!
0&
#135000
1!
b10000 "
b1110 %
1&
#140000
0!
0&
#145000
1!
b1111 %
1&
#150000
0!
0&
#155000
1!
b10000 %
1&
#160000
0!
0&
#165000
1!
b10001 %
1&
#170000
0!
0&
#175000
1!
b10010 %
1&
#180000
0!
0&
#185000
1!
b10011 %
1&
#190000
0!
0&
#195000
1!
b10100 %
1&
#200000
0!
0&
#205000
1!
b10101 %
1&
#210000
0!
0&
#215000
1!
b10110 %
1&
#220000
0!
0&
#225000
1!
b10111 %
1&
#230000
0!
0&
#235000
1!
b11000 %
1&
#240000
0!
0&
#245000
1!
b11001 %
1&
